{
	"info": {
		"_postman_id": "203557f1-1949-4e55-855c-617e967f8a9a",
		"name": "Roulette",
		"schema": "https://schema.getpostman.com/json/collection/v2.1.0/collection.json"
	},
	"item": [
		{
			"name": "/roulette/turn",
			"request": {
				"method": "POST",
				"header": [],
				"body": {
					"mode": "raw",
					"raw": "{\n    \"userId\": 34\n}",
					"options": {
						"raw": {
							"language": "json"
						}
					}
				},
				"url": {
					"raw": "http://127.0.0.1:8001/roulette/turn",
					"protocol": "http",
					"host": [
						"127",
						"0",
						"0",
						"1"
					],
					"port": "8001",
					"path": [
						"roulette",
						"turn"
					]
				}
			},
			"response": []
		},
		{
			"name": "roulette/statistics",
			"protocolProfileBehavior": {
				"disableBodyPruning": true
			},
			"request": {
				"method": "GET",
				"header": [],
				"body": {
					"mode": "raw",
					"raw": "{\n}",
					"options": {
						"raw": {
							"language": "json"
						}
					}
				},
				"url": {
					"raw": "http://127.0.0.1:8001/roulette/statistics",
					"protocol": "http",
					"host": [
						"127",
						"0",
						"0",
						"1"
					],
					"port": "8001",
					"path": [
						"roulette",
						"statistics"
					]
				}
			},
			"response": []
		}
	],
	"protocolProfileBehavior": {}
}